move(0, 0, 0, -1)
move(0, 1, 0, 0)
move(0, 1, 0, 0)
move(0, 0, 0, -1)
move(0, 0, 0, -1)
move(1, 1, 0, 0)
move(0, 1, 0, 0)
move(0, 0, 0, 1)
move(0, 1, 0, 0)
move(0, 1, 0, 0)
move(0, 1, 0, 0)
move(0, 1, 0, 0)
Plan length : 12
Total time: 84.2396
Nodes generated during search: 2280
Nodes expanded during search: 741
Heuristic evaluations per second: 27.065655
IW(2)
Initial width: 2
Delta Time(s): 0.01
State var discretization(for roundup): 4
Translation velocity(m/s): 100
Rotation velocity(rad/s): 52.36
