{
	"engine": {
		"tag_comment": "Possible pre-configured engines include:
							* gbfs_chff:  Greedy Best-First Search with the Constrained h_FF heuristic
							* gbfs_chmax: Greedy Best-First Search with the Constrained h_MAX heuristic
							* bfws: Best First Search with novelty
							* iw: The IW algorithm (Breadth-First Search with novelty pruning)
							* breadth_first_search: A plain and blind Breadth-First Search.",
		"tag": "bfws",
		"max_novelty": 2,
		"initial_width": 2,
		"discretization": 4,
		"resolution": 10,
		"factor": 0.4,
		"v_trans": 100,
		"v_rot": 52.36,
		"deltaT": 0.01
	},
	
	"other_robot": {
		
		"robot": "a_komodo",
		"base": "dummy_link",
		"gripper": "",
		"hand": "wrist_link",
		"grasping_eval_dist": [2.0, 2.4],
		"grasping_links": ["right_finger_link", "left_finger_link"],
		"arm_joints": ["base_rotation_joint", "elbow1_joint", "elbow2_joint", "shoulder_joint", "wrist_joint"]

	},

	"robot": {
		
		"robot": "a_robot_big",
		"base": "bug",
		"gripper": "gripper_big",
		"hand": "palm",
		"grasping_eval_dist": [2.0, 2.4],
		"grasping_links": ["gr", "gl"],
		"arm_joints": ["arm_1_joint", "arm_2_joint", "arm_3_joint", "arm_4_joint", "arm_5_joint", "arm_6_joint", "arm_7_joint"]

	}
}
