grasp(1)
move(1, 0, 0)
move(1, 0, 0)
move(0, 0, -1)
move(0, 0, -1)
move(1, 0, 0)
move(1, 0, 0)
move(1, 0, 0)
place(1)
move(0, 0, 1)
move(1, 0, 0)
move(1, 0, 0)
grasp(4)
Plan length : 13
Total time: 95.628
Nodes generated during search: 3454
Nodes expanded during search: 1072
Heuristic evaluations per second: 36.119129
IW(2)
Initial width: 2
Delta Time(s): 0.01
State var discretization(for roundup): 4
Translation velocity(m/s): 100
Rotation velocity(rad/s): 52.36
