grasp(1)
move(1, 0, 0)
move(1, 0, 0)
move(0, 0, 1)
move(1, 0, 0)
move(0, 0, 1)
move(1, 0, 0)
move(0, 0, 1)
move(1, 0, 0)
move(1, 0, 0)
move(1, 0, 0)
Plan length : 11
Total time: 64.028
Nodes generated during search: 5319
Nodes expanded during search: 1386
Heuristic evaluations per second: 83.073029
IW(2)
Initial width: 2
Delta Time(s): 0.01
State var discretization(for roundup): 4
Translation velocity(m/s): 100
Rotation velocity(rad/s): 52.36
