move(0, 0, -1)
move(1, 0, 0)
move(1, 0, 0)
move(0, 0, -1)
grasp(3)
move(0, 0, -1)
move(1, 0, 0)
move(0, 0, 1)
move(1, 0, 0)
move(0, 0, 1)
move(1, 0, 0)
move(1, 0, 0)
move(1, 0, 0)
move(1, 0, 0)
Plan length : 14
Total time: 286.696
Nodes generated during search: 21166
Nodes expanded during search: 4795
Heuristic evaluations per second: 73.827324
IW(2)
Initial width: 2
Delta Time(s): 0.01
State var discretization(for roundup): 4
Translation velocity(m/s): 100
Rotation velocity(rad/s): 52.36
