move(0, 0, 1)
move(0, 0, 1)
move(0, 0, 1)
move(0, 0, 1)
move(0, 0, 1)
grasp(4)
move(1, 0, 0)
move(1, 0, 0)
move(0, 0, 1)
place(1)
grasp(5)
move(0, 0, 1)
move(1, 0, 0)
move(1, 0, 0)
move(1, 0, 0)
move(1, 0, 0)
move(0, 0, 1)
move(0, 0, 1)
move(0, 0, 1)
move(1, 0, 0)
Plan length : 20
Total time: 85.7965
Nodes generated during search: 1242
Nodes expanded during search: 262
Heuristic evaluations per second: 14.476107
IW(2)
Initial width: 2
Delta Time(s): 0.01
State var discretization(for roundup): 4
Translation velocity(m/s): 100
Rotation velocity(rad/s): 52.36
